Brings transcriptomics to the tidyverse • tidybulk
…
## tidybulk says: The design column names are "dextrt, dexuntrt"

## tidybulk says: to access the DE object do `metadata(.)$tidybulk$edgeR_quasi_likelihood_object`
## tidybulk says: to access the raw results (fitted GLM) do `metadata(.)$tidybulk$edgeR_quasi_likelihood_fit`

## # A tibble: 15,926 × 5
##    contrasts__logFC___dextrt...d…¹ contrasts__logCPM___…² contrasts__F___dextr…³
##                              <dbl>                  <dbl>                  <dbl>
##  1                         -0.388                    5.06                 6.82  
##  2                          0.195                    4.61                 5.98  
##  3                          0.0239                   3.48                 0.0566
##  4                         -0.124                    1.48                 0.214 
##  5                          0.432                    8.09                 2.94  
##  6                         -0.250                    5.91                 6.08  
##  7                         -0.0387                   4.84                 0.0327
##  8                         -0.497                    4.12                 7.07  
##  9                         -0.140                    3.12                 1.03  
## 10                         -0.0527                   7.04                 0.0331
## # ℹ 15,916 more rows
## # ℹ abbreviated names: ¹​contrasts__logFC___dextrt...dexuntrt,
## #   ²​contrasts__logCPM___dextrt...dexuntrt, ³​contrasts__F___dextrt...dexuntrt
## # ℹ 2 more variables: contrasts__PValue___dextrt...dexuntrt <dbl>,
## #   contrasts__FDR___dextrt...dexuntrt <dbl>
…
    # Print the gene statistics
  pivot_transcript() |>
  select(contains("treat"))

## tidybulk says: The design column names are "dextrt, dexuntrt"

## tidybulk says: to access the DE object do `metadata(.)$tidybulk$edgeR_quasi_likelihood_object`
## tidybulk says: to access the raw results (fitted GLM) do `metadata(.)$tidybulk$edgeR_quasi_likelihood_fit`

## # A tibble: 15,926 × 5
##    treat__logFC___dextrt...dexun…¹ treat__unshrunk.logF…² treat__logCPM___dext…³
##                              <dbl>                  <dbl>                  <dbl>
##  1                         -0.388                 -0.388                    5.06
##  2                          0.195                  0.195                    4.61
##  3                          0.0239                 0.0240                   3.48
##  4                         -0.124                 -0.124                    1.48
##  5                          0.432                  0.433                    8.09
##  6                         -0.250                 -0.250                    5.91
##  7                         -0.0387                -0.0387                   4.84
##  8                         -0.497                 -0.497                    4.12
##  9                         -0.140                 -0.140                    3.12
## 10                         -0.0527                -0.0527                   7.04
## # ℹ 15,916 more rows
## # ℹ abbreviated names: ¹​treat__logFC___dextrt...dexuntrt,
## #   ²​treat__unshrunk.logFC___dextrt...dexuntrt,
## #   ³​treat__logCPM___dextrt...dexuntrt
## # ℹ 2 more variables: treat__PValue___dextrt...dexuntrt <dbl>,
## #   treat__FDR___dextrt...dexuntrt <dbl>
…
## class: RangedSummarizedExperiment 
## dim: 100 8 
## metadata(2): '' tidybulk
## assays(4): counts counts_tmm counts_upperquartile counts_RLE
## rownames(100): ENSG00000000003 ENSG00000000419 ... ENSG00000006114
##   ENSG00000006118
## rowData names(63): gene_id gene_name ... glmmseq__P_dex
##   glmmseq__P_dex_adjusted
## colnames(8): SRR1039508 SRR1039509 ... SRR1039520 SRR1039521
## colData names(16): SampleName cell ... PC2 cluster_kmeans

  airway |>
  pivot_transcript() 

## # A tibble: 15,926 × 41
##    .feature  gene_id gene_name entrezid gene_biotype gene_seq_start gene_seq_end
##    <chr>     <chr>   <chr>        <int> <chr>                 <int>        <int>
##  1 ENSG0000… ENSG00… ENSG0000…       NA protein_cod…       99883667     99894988
##  2 ENSG0000… ENSG00… ENSG0000…       NA protein_cod…       49551404     49575092
##  3 ENSG0000… ENSG00… ENSG0000…       NA protein_cod…      169818772    169863408
##  4 ENSG0000… ENSG00… ENSG0000…       NA protein_cod…      169631245    169823221
##  5 ENSG0000… ENSG00… ENSG0000…       NA protein_cod…      196621008    196716634
##  6 ENSG0000… ENSG00… ENSG0000…       NA protein_cod…      143815948    143832827
##  7 ENSG0000… ENSG00… ENSG0000…       NA protein_cod…       53362139     53481768
##  8 ENSG0000… ENSG00… ENSG0000…       NA protein_cod…       41040684     41067715
##  9 ENSG0000… ENSG00… ENSG0000…       NA protein_cod…       24683489     24743424
## 10 ENSG0000… ENSG00… ENSG0000…       NA protein_cod…       24742284     24799466
## # ℹ 15,916 more rows
## # ℹ 34 more variables: seq_name <chr>, seq_strand <int>,
## #   seq_coord_system <int>, symbol <chr>, .abundant <lgl>, ql__logFC <dbl>,
## #   ql__logCPM <dbl>, ql__F <dbl>, ql__PValue <dbl>, ql__FDR <dbl>,
## #   lr_robust__logFC <dbl>, lr_robust__logCPM <dbl>, lr_robust__LR <dbl>,
## #   lr_robust__PValue <dbl>, lr_robust__FDR <dbl>, deseq2__baseMean <dbl>,
## #   deseq2__log2FoldChange <dbl>, deseq2__lfcSE <dbl>, deseq2__stat <dbl>, …
…
## Warning: There were 2 warnings in `mutate()`.
## The first warning was:
## ℹ In argument: `fit = map(...)`.
## Caused by warning in `fgseaMultilevel()`:
## ! For some of the pathways the P-values were likely overestimated. For such pathways log2err is set to NA.
## ℹ Run `dplyr::last_dplyr_warnings()` to see the 1 remaining warning.

# Inspect significant gene sets (example for C2 collection)
gene_rank_res |>
  filter(gs_collection == "C2") |>
  dplyr::select(-fit) |>
  unnest(test) |>
  filter(p.adjust < 0.05)

## # A tibble: 143 × 13
##    gs_collection idx_for_plotting ID         Description setSize enrichmentScore
##    <chr>                    <int> <chr>      <chr>         <int>           <dbl>
##  1 C2                           1 CHEN_LVAD… CHEN_LVAD_…      87          -0.738
##  2 C2                           2 VECCHI_GA… VECCHI_GAS…     221          -0.552
##  3 C2                           3 FEKIR_HEP… FEKIR_HEPA…      32          -0.825
##  4 C2                           4 BOQUEST_S… BOQUEST_ST…     389          -0.437
##  5 C2                           5 SHEDDEN_L… SHEDDEN_LU…     157          -0.552
##  6 C2                           6 CHARAFE_B… CHARAFE_BR…     405          -0.424
##  7 C2                           7 WP_OVERVI… WP_OVERVIE…      29           0.778
##  8 C2                           8 HOSHIDA_L… HOSHIDA_LI…     194          -0.489
##  9 C2                           9 BLANCO_ME… BLANCO_MEL…     145           0.505
## 10 C2                          10 ZWANG_CLA… ZWANG_CLAS…     189          -0.478
## # ℹ 133 more rows
## # ℹ 7 more variables: NES <dbl>, pvalue <dbl>, p.adjust <dbl>, qvalue <dbl>,
## #   rank <dbl>, leading_edge <chr>, core_enrichment <chr>
…
    # Filter for genes with entrez IDs
  filter(!entrezid |> is.na()) |>
  
  test_gene_overrepresentation(
    .entrez = entrezid,
    species = "Homo sapiens",
    .do_test = genes_to_test,
    gene_sets = c("H", "C2", "C5")
  )

  airway_overrep

## # A tibble: 5,291 × 13
##    gs_collection ID      Description GeneRatio BgRatio RichFactor FoldEnrichment
##    <chr>         <chr>   <chr>       <chr>     <chr>        <dbl>          <dbl>
##  1 C2            PASINI… PASINI_SUZ… 88/1848   316/22…      0.278           3.37
##  2 C2            CHARAF… CHARAFE_BR… 108/1848  465/22…      0.232           2.81
##  3 C2            REN_AL… REN_ALVEOL… 98/1848   407/22…      0.241           2.92
##  4 C2            CHARAF… CHARAFE_BR… 105/1848  456/22…      0.230           2.79
##  5 C2            CHEN_L… CHEN_LVAD_… 45/1848   102/22…      0.441           5.34
##  6 C2            BOQUES… BOQUEST_ST… 96/1848   428/22…      0.224           2.72
##  7 C2            LIM_MA… LIM_MAMMAR… 103/1848  479/22…      0.215           2.60
##  8 C2            LIU_PR… LIU_PROSTA… 104/1848  495/22…      0.210           2.54
##  9 C2            LU_AGI… LU_AGING_B… 70/1848   264/22…      0.265           3.21
## 10 C2            ONDER_… ONDER_CDH1… 67/1848   257/22…      0.261           3.16
## # ℹ 5,281 more rows
## # ℹ 6 more variables: zScore <dbl>, pvalue <dbl>, p.adjust <dbl>, qvalue <dbl>,
## #   Count <int>, entrez <list>
…
