…
We can add transcript from ensembl indexes if needed

``` r
counts_ensembl %>% annotate_symbol(ens)
```

With an example data set of this kind (included in the package)

``` r
counts # Accessible via tidyTranscriptomics::counts
```

    ## # A tibble: 1,340,160 x 5
    ##    sample     transcript   `Cell type` `read count` time 
    ##    <chr>      <chr>        <chr>              <dbl> <chr>
    ##  1 SRR1740034 DDX11L1      b_cell                17 0 d  
    ##  2 SRR1740034 WASH7P       b_cell              3568 0 d  
    ##  3 SRR1740034 MIR6859-1    b_cell                57 0 d  
    ##  4 SRR1740034 MIR1302-2    b_cell                 1 0 d  
    ##  5 SRR1740034 FAM138A      b_cell                 0 0 d  
    ##  6 SRR1740034 OR4F5        b_cell                 0 0 d  
    ##  7 SRR1740034 LOC729737    b_cell              1764 0 d  
    ##  8 SRR1740034 LOC102725121 b_cell                11 0 d  
    ##  9 SRR1740034 WASH9P       b_cell              3590 0 d  
    ## 10 SRR1740034 MIR6859-2    b_cell                40 0 d  
    ## # … with 1,340,150 more rows

We can aggregate (e.g., sum) duplicated gene symbols

``` r
counts.aggr = 
  counts %>%
  aggregate_duplicates(sample, transcript, `read count`,  aggregation_function = sum)

counts.aggr
```

    ## # A tibble: 1,340,160 x 6
    ##    sample   transcript  `Cell type` `read count` time  `number of merged t…
    ##    <chr>    <chr>       <chr>              <dbl> <chr>                <dbl>
    ##  1 SRR1740… DDX11L1     b_cell                17 0 d                      1
    ##  2 SRR1740… WASH7P      b_cell              3568 0 d                      1
    ##  3 SRR1740… MIR6859-1   b_cell                57 0 d                      1
    ##  4 SRR1740… MIR1302-2   b_cell                 1 0 d                      1
    ##  5 SRR1740… FAM138A     b_cell                 0 0 d                      1
    ##  6 SRR1740… OR4F5       b_cell                 0 0 d                      1
    ##  7 SRR1740… LOC729737   b_cell              1764 0 d                      1
    ##  8 SRR1740… LOC1027251… b_cell                11 0 d                      1
    ##  9 SRR1740… WASH9P      b_cell              3590 0 d                      1
    ## 10 SRR1740… MIR6859-2   b_cell                40 0 d                      1
    ## # … with 1,340,150 more rows

We can add normalised
counts

``` r
counts.norm =  counts.aggr %>% normalise_counts(sample, transcript, `read count`)
counts.norm
```

    ## # A tibble: 1,340,160 x 10
    ##    sample transcript `Cell type` `read count` time  `number of merg…
    ##    <chr>  <chr>      <chr>              <dbl> <chr>            <dbl>
    ##  1 SRR17… A1BG       b_cell               153 0 d                  1
    ##  2 SRR17… A1BG-AS1   b_cell                83 0 d                  1
    ##  3 SRR17… A1CF       b_cell                 1 0 d                  1
    ##  4 SRR17… A2M        b_cell                 1 0 d                  1
    ##  5 SRR17… A2M-AS1    b_cell                 0 0 d                  1
    ##  6 SRR17… A2ML1      b_cell                 3 0 d                  1
    ##  7 SRR17… A2MP1      b_cell                 0 0 d                  1
    ##  8 SRR17… A3GALT2    b_cell                 0 0 d                  1
    ##  9 SRR17… A4GALT     b_cell                 4 0 d                  1
    ## 10 SRR17… A4GNT      b_cell                 0 0 d                  1
    ## # … with 1,340,150 more rows, and 4 more variables: `read count
    ## #   normalised` <dbl>, TMM <dbl>, multiplier <dbl>,
    ## #   filtered_out_low_counts <lgl>
…
We can add MDS components, then use them for plotting or other post
processing

``` r
counts.norm.MDS = 
  counts.norm %>%
  reduce_dimensions(value_column = `read count normalised`, method="MDS" , elements_column = sample, feature_column = transcript)
counts.norm.MDS
```

    ## # A tibble: 1,340,160 x 12
    ##    sample transcript `Cell type` `read count` time  `number of merg…
    ##    <chr>  <chr>      <chr>              <dbl> <chr>            <dbl>
    ##  1 SRR17… A1BG       b_cell               153 0 d                  1
    ##  2 SRR17… A1BG-AS1   b_cell                83 0 d                  1
    ##  3 SRR17… A1CF       b_cell                 1 0 d                  1
    ##  4 SRR17… A2M        b_cell                 1 0 d                  1
    ##  5 SRR17… A2M-AS1    b_cell                 0 0 d                  1
    ##  6 SRR17… A2ML1      b_cell                 3 0 d                  1
    ##  7 SRR17… A2MP1      b_cell                 0 0 d                  1
    ##  8 SRR17… A3GALT2    b_cell                 0 0 d                  1
    ##  9 SRR17… A4GALT     b_cell                 4 0 d                  1
    ## 10 SRR17… A4GNT      b_cell                 0 0 d                  1
    ## # … with 1,340,150 more rows, and 6 more variables: `read count
    ## #   normalised` <dbl>, TMM <dbl>, multiplier <dbl>,
    ## #   filtered_out_low_counts <lgl>, `Dimension 1` <dbl>, `Dimension
    ## #   2` <dbl>
…
We can add K-means cluster labels, then use them for plotting or other
post processing

``` r
counts.norm.MDS.kmeans = counts.norm.MDS %>%
  annotate_clusters(value_column = `read count normalised`, elements_column = sample, feature_column = transcript,  number_of_clusters = 2 )

counts.norm.MDS.kmeans
```

    ## # A tibble: 1,340,160 x 13
    ##    sample transcript `Cell type` `read count` time  `number of merg…
    ##    <chr>  <chr>      <chr>              <dbl> <chr>            <dbl>
    ##  1 SRR17… A1BG       b_cell               153 0 d                  1
    ##  2 SRR17… A1BG-AS1   b_cell                83 0 d                  1
    ##  3 SRR17… A1CF       b_cell                 1 0 d                  1
    ##  4 SRR17… A2M        b_cell                 1 0 d                  1
    ##  5 SRR17… A2M-AS1    b_cell                 0 0 d                  1
    ##  6 SRR17… A2ML1      b_cell                 3 0 d                  1
    ##  7 SRR17… A2MP1      b_cell                 0 0 d                  1
    ##  8 SRR17… A3GALT2    b_cell                 0 0 d                  1
    ##  9 SRR17… A4GALT     b_cell                 4 0 d                  1
    ## 10 SRR17… A4GNT      b_cell                 0 0 d                  1
    ## # … with 1,340,150 more rows, and 7 more variables: `read count
    ## #   normalised` <dbl>, TMM <dbl>, multiplier <dbl>,
    ## #   filtered_out_low_counts <lgl>, `Dimension 1` <dbl>, `Dimension
    ## #   2` <dbl>, cluster <fct>
…
We can annotate our tibble with differential transcription analysis
results

``` r
counts.norm.MDS.kmeans %>%
    annotate_differential_transcription( ~ cluster, sample, transcript, `read count`, action="get") 
```

    ## # A tibble: 27,920 x 8
    ##    transcript logFC logCPM    LR    PValue       FDR is_de filtered_out_lo…
    ##    <chr>      <dbl>  <dbl> <dbl>     <dbl>     <dbl> <lgl> <lgl>           
    ##  1 ZNF827      7.37   3.78  984. 5.10e-216 8.06e-212 TRUE  FALSE           
    ##  2 SLC31A2    -5.18   6.60  974. 6.63e-214 5.24e-210 TRUE  FALSE           
    ##  3 SEPT1       6.31   6.70  970. 6.20e-213 3.27e-209 TRUE  FALSE           
    ##  4 CLUHP3      8.62   3.56  935. 2.11e-205 8.35e-202 TRUE  FALSE           
    ##  5 MCTP1      -4.71   5.37  843. 3.06e-185 9.67e-182 TRUE  FALSE           
    ##  6 DMXL2      -6.07   8.12  751. 2.63e-165 6.92e-162 TRUE  FALSE           
    ##  7 LINC00426   7.21   2.49  717. 6.31e-158 1.43e-154 TRUE  FALSE           
    ##  8 LDOC1       6.86   2.54  707. 1.03e-155 2.03e-152 TRUE  FALSE           
    ##  9 CASP17P     7.18   2.20  705. 2.40e-155 4.22e-152 TRUE  FALSE           
    ## 10 SIDT1       5.02   5.40  696. 2.28e-153 3.61e-150 TRUE  FALSE           
    ## # … with 27,910 more rows
…
``` r
counts.norm.MDS.kmeans %>%
  
  # Add fake batch
  left_join( (.) %>% distinct(sample) %>% mutate(batch = sample(0:1, n(), replace = T))) %>%
    
  # Add covariate
  adjust_counts( ~ cluster + batch, sample, transcript, `read count normalised`)
```

    ## Standardizing Data across genes

    ## # A tibble: 1,340,160 x 16
    ##    sample transcript `Cell type` `read count` time  `number of merg…
    ##    <chr>  <chr>      <chr>              <dbl> <chr>            <dbl>
    ##  1 SRR17… A1BG       b_cell               153 0 d                  1
    ##  2 SRR17… A1BG-AS1   b_cell                83 0 d                  1
    ##  3 SRR17… A1CF       b_cell                 1 0 d                  1
    ##  4 SRR17… A2M        b_cell                 1 0 d                  1
    ##  5 SRR17… A2M-AS1    b_cell                 0 0 d                  1
    ##  6 SRR17… A2ML1      b_cell                 3 0 d                  1
    ##  7 SRR17… A2MP1      b_cell                 0 0 d                  1
    ##  8 SRR17… A3GALT2    b_cell                 0 0 d                  1
    ##  9 SRR17… A4GALT     b_cell                 4 0 d                  1
    ## 10 SRR17… A4GNT      b_cell                 0 0 d                  1
    ## # … with 1,340,150 more rows, and 10 more variables: `read count
    ## #   normalised` <dbl>, TMM <dbl>, multiplier <dbl>,
    ## #   filtered_out_low_counts.x <lgl>, `Dimension 1` <dbl>, `Dimension
    ## #   2` <dbl>, cluster <fct>, batch <int>, `read count normalised
    ## #   adjusted` <int>, filtered_out_low_counts.y <lgl>

We can add the predictions from Cibersort to each
sample

``` r
counts.cibersort = counts %>% annotate_cell_type(sample, transcript, `read count`, action="add") 
counts.cibersort
```

    ## # A tibble: 29,483,520 x 7
    ##    sample transcript `Cell type.x` `read count` time  `Cell type.y`
    ##    <chr>  <chr>      <chr>                <dbl> <chr> <chr>        
    ##  1 SRR17… DDX11L1    b_cell                  17 0 d   B cells naive
    ##  2 SRR17… DDX11L1    b_cell                  17 0 d   B cells memo…
    ##  3 SRR17… DDX11L1    b_cell                  17 0 d   Plasma cells 
    ##  4 SRR17… DDX11L1    b_cell                  17 0 d   T cells CD8  
    ##  5 SRR17… DDX11L1    b_cell                  17 0 d   T cells CD4 …
    ##  6 SRR17… DDX11L1    b_cell                  17 0 d   T cells CD4 …
    ##  7 SRR17… DDX11L1    b_cell                  17 0 d   T cells CD4 …
    ##  8 SRR17… DDX11L1    b_cell                  17 0 d   T cells foll…
    ##  9 SRR17… DDX11L1    b_cell                  17 0 d   T cells regu…
    ## 10 SRR17… DDX11L1    b_cell                  17 0 d   T cells gamm…
    ## # … with 29,483,510 more rows, and 1 more variable: proportion <dbl>
…
