Introduction
…
ttBulk is a collection of wrapper functions for bulk tanscriptomic analyses that follows the “tidy” paradigm. The data structure is a tibble with columns for 

sample identifier column

transcript identifier column

count column

annotation (and other info) columns

counts = ttBulk(ttBulk::counts_mini, sample, transcript, count)
counts 

## # A tibble: 2,635 x 6
##    sample     transcript `Cell type` count time  condition
##    <chr>      <chr>      <chr>       <dbl> <chr> <lgl>    
##  1 SRR1740034 TNFRSF4    b_cell          6 0 d   TRUE     
##  2 SRR1740034 PLCH2      b_cell        926 0 d   TRUE     
##  3 SRR1740034 PADI4      b_cell         21 0 d   TRUE     
##  4 SRR1740034 PAX7       b_cell          0 0 d   TRUE     
##  5 SRR1740034 CDA        b_cell          1 0 d   TRUE     
##  6 SRR1740034 RCAN3      b_cell        905 0 d   TRUE     
##  7 SRR1740034 SMPDL3B    b_cell          3 0 d   TRUE     
##  8 SRR1740034 EPB41      b_cell       4667 0 d   TRUE     
##  9 SRR1740034 LCK        b_cell        436 0 d   TRUE     
## 10 SRR1740034 COL8A2     b_cell          1 0 d   TRUE     
## # … with 2,625 more rows
…
All ttBulk methods are directly compatible with SummarizedExperiment as well.

Aggregate transcripts

ttBulk provide the aggregate_duplicates function to aggregate duplicated transcripts (e.g., isoforms, ensembl). For example, we often have to convert ensembl symbols to gene/transcript symbol, but in doing so we have to deal with duplicates. aggregate_duplicates takes a tibble and column names (as symbols; for sample, transcript and count) as arguments and returns a tibble with aggregate transcript with the same name. All the rest of the column are appended, and factors and boolean are appended as characters.

counts.aggr =  counts %>% aggregate_duplicates(     aggregation_function = sum )

## Converted to characters
## condition 
## "logical"

counts.aggr 

## # A tibble: 2,635 x 7
##    sample     transcript `Cell type` count time  condition `merged transcripts`
##    <chr>      <chr>      <chr>       <dbl> <chr> <chr>                    <dbl>
##  1 SRR1740034 TNFRSF4    b_cell          6 0 d   TRUE                         1
##  2 SRR1740034 PLCH2      b_cell        926 0 d   TRUE                         1
##  3 SRR1740034 PADI4      b_cell         21 0 d   TRUE                         1
##  4 SRR1740034 PAX7       b_cell          0 0 d   TRUE                         1
##  5 SRR1740034 CDA        b_cell          1 0 d   TRUE                         1
##  6 SRR1740034 RCAN3      b_cell        905 0 d   TRUE                         1
##  7 SRR1740034 SMPDL3B    b_cell          3 0 d   TRUE                         1
##  8 SRR1740034 EPB41      b_cell       4667 0 d   TRUE                         1
##  9 SRR1740034 LCK        b_cell        436 0 d   TRUE                         1
## 10 SRR1740034 COL8A2     b_cell          1 0 d   TRUE                         1
## # … with 2,625 more rows
…
Normalise counts

We may want to calculate the scaled counts for library size (e.g., with TMM algorithm, Robinson and Oshlack doi.org/10.1186/gb-2010-11-3-r25). scale_abundance takes a tibble, column names (as symbols; for sample, transcript and count) and a method as arguments and returns a tibble with additional columns with scaled data as <NAME OF COUNT COLUMN> scaled.

counts.norm =  counts.aggr %>% scale_abundance(method="TMM")

counts.norm %>% select(`count`, `count scaled`, `filter out low counts`, everything())

## # A tibble: 2,635 x 11
##    count `count scaled` `filter out low counts` sample transcript `Cell type`
##    <dbl>          <dbl> <lgl>                   <chr>  <chr>      <chr>      
##  1  1035        1164.   FALSE                   SRR17… ABCB4      b_cell     
##  2    45          50.6  FALSE                   SRR17… ABCB9      b_cell     
##  3  7151        8043.   FALSE                   SRR17… ACAP1      b_cell     
##  4     2           2.25 TRUE                    SRR17… ACHE       b_cell     
##  5  2278        2562.   FALSE                   SRR17… ACP5       b_cell     
##  6 11156       12547.   FALSE                   SRR17… ADAM28     b_cell     
##  7    72          81.0  FALSE                   SRR17… ADAMDEC1   b_cell     
##  8     0           0    TRUE                    SRR17… ADAMTS3    b_cell     
##  9   298         335.   FALSE                   SRR17… ADRB2      b_cell     
## 10     8           9.00 FALSE                   SRR17… AIF1       b_cell     
## # … with 2,625 more rows, and 5 more variables: time <chr>, condition <chr>,
## #   `merged transcripts` <dbl>, TMM <dbl>, multiplier <dbl>
…
counts.norm.tSNE %>% 
    select(contains("tSNE", ignore.case = FALSE), sample, Call) %>%
    distinct()

## # A tibble: 251 x 4
##      tSNE1  tSNE2 sample                       Call 
##      <dbl>  <dbl> <chr>                        <fct>
##  1   5.10   -7.47 TCGA-A1-A0SD-01A-11R-A115-07 LumA 
##  2  -0.192   8.38 TCGA-A1-A0SF-01A-11R-A144-07 LumA 
##  3  18.7    -7.55 TCGA-A1-A0SG-01A-11R-A144-07 LumA 
##  4  -3.91   -5.31 TCGA-A1-A0SH-01A-11R-A084-07 LumA 
##  5   0.914  -5.26 TCGA-A1-A0SI-01A-11R-A144-07 LumB 
##  6  -5.56    4.56 TCGA-A1-A0SJ-01A-11R-A084-07 LumA 
##  7 -10.3    19.4  TCGA-A1-A0SK-01A-12R-A084-07 Basal
##  8 -11.4    -4.99 TCGA-A1-A0SM-01A-11R-A084-07 LumA 
##  9 -10.3    -3.92 TCGA-A1-A0SN-01A-11R-A144-07 LumB 
## 10  18.4   -14.8  TCGA-A1-A0SQ-01A-21R-A144-07 LumA 
## # … with 241 more rows
…
Annotate differential transcription

We may want to test for differential transcription between sample-wise factors of interest (e.g., with edgeR). test_differential_abundance takes a tibble, column names (as symbols; for sample, transcript and count) and a formula representing the desired linear model as arguments and returns a tibble with additional columns for the statistics from the hypothesis test (e.g.,  log fold change, p-value and false discovery rate). 

counts %>%  test_differential_abundance(  ~ condition,  action="get")

## # A tibble: 527 x 8
##    transcript logFC logCPM    LR    PValue     FDR is_de `filter out low counts`
##    <chr>      <dbl>  <dbl> <dbl>     <dbl>   <dbl> <lgl> <lgl>                  
##  1 FCN1       -12.5  15.3   35.0   3.37e-9 9.05e-7 TRUE  FALSE                  
##  2 HK3        -12.1  13.4   34.6   4.08e-9 9.05e-7 TRUE  FALSE                  
##  3 CLEC7A     -11.5  12.7   32.9   9.68e-9 1.43e-6 TRUE  FALSE                  
##  4 FAM198B    -13.4  11.4   31.6   1.90e-8 2.11e-6 TRUE  FALSE                  
##  5 CD33       -11.8  11.4   30.5   3.42e-8 3.04e-6 TRUE  FALSE                  
##  6 CSF3R      -11.1  13.4   28.5   9.46e-8 7.00e-6 TRUE  FALSE                  
##  7 FPR1       -11.2  11.5   27.3   1.78e-7 9.12e-6 TRUE  FALSE                  
##  8 CDA        -11.3   9.36  27.2   1.82e-7 9.12e-6 TRUE  FALSE                  
##  9 AQP9       -11.0  10.2   26.9   2.09e-7 9.12e-6 TRUE  FALSE                  
## 10 HNMT       -11.4   9.35  26.9   2.09e-7 9.12e-6 TRUE  FALSE                  
## # … with 517 more rows
…
counts.norm.adj =
    counts.norm.batch %>%
      adjust_abundance(
        ~ factor_of_interest + batch,
        .abundance = `count scaled`,
        action = "get"
      )

## Combat is applied excluding `filter out low counts`, as it performs on non sparse matrices. Therefore NAs will be used for those lowly abundant transcripts 
## Standardizing Data across genes

counts.norm.adj

## # A tibble: 2,635 x 4
##    transcript sample     `count scaled adjusted` `filter out low counts`
##    <chr>      <chr>                        <int> <lgl>                  
##  1 ABCB4      SRR1740034                    1759 FALSE                  
##  2 ABCB9      SRR1740034                      72 FALSE                  
##  3 ACAP1      SRR1740034                    8613 FALSE                  
##  4 ACHE       SRR1740034                      NA TRUE                   
##  5 ACP5       SRR1740034                    2341 FALSE                  
##  6 ADAM28     SRR1740034                    7344 FALSE                  
##  7 ADAMDEC1   SRR1740034                      38 FALSE                  
##  8 ADAMTS3    SRR1740034                      NA TRUE                   
##  9 ADRB2      SRR1740034                     416 FALSE                  
## 10 AIF1       SRR1740034                       4 FALSE                  
## # … with 2,625 more rows
…
Annotate clusters

We may want to cluster our data (e.g., using k-means sample-wise). cluster_elements takes as arguments a tibble, column names (as symbols; for sample, transcript and count) and returns a tibble with additional columns for the cluster annotation. At the moment only k-means clustering is supported, the plan is to introduce more clustering methods.

k-means

counts.norm.cluster = counts.norm %>%
  cluster_elements(.abundance = `count scaled`, method="kmeans",    centers = 2 )

counts.norm.cluster

## # A tibble: 2,635 x 12
##    sample transcript `Cell type` count time  condition `merged transcripts`
##    <chr>  <chr>      <chr>       <dbl> <chr> <chr>                    <dbl>
##  1 SRR17… ABCB4      b_cell       1035 0 d   TRUE                         1
##  2 SRR17… ABCB9      b_cell         45 0 d   TRUE                         1
##  3 SRR17… ACAP1      b_cell       7151 0 d   TRUE                         1
##  4 SRR17… ACHE       b_cell          2 0 d   TRUE                         1
##  5 SRR17… ACP5       b_cell       2278 0 d   TRUE                         1
##  6 SRR17… ADAM28     b_cell      11156 0 d   TRUE                         1
##  7 SRR17… ADAMDEC1   b_cell         72 0 d   TRUE                         1
##  8 SRR17… ADAMTS3    b_cell          0 0 d   TRUE                         1
##  9 SRR17… ADRB2      b_cell        298 0 d   TRUE                         1
## 10 SRR17… AIF1       b_cell          8 0 d   TRUE                         1
## # … with 2,625 more rows, and 5 more variables: `count scaled` <dbl>,
## #   TMM <dbl>, multiplier <dbl>, `filter out low counts` <lgl>, `cluster
## #   kmeans` <fct>
…
## Modularity Optimizer version 1.3.0 by Ludo Waltman and Nees Jan van Eck
## 
## Number of nodes: 251
## Number of edges: 8484
## 
## Running Louvain algorithm...
## Maximum modularity in 10 random starts: 0.5329
## Number of communities: 4
## Elapsed time: 0 seconds

counts.norm.SNN %>% 
    select(contains("tSNE", ignore.case = FALSE), `cluster SNN`, sample) %>%
    distinct()

## # A tibble: 251 x 4
##      tSNE1  tSNE2 `cluster SNN` sample                      
##      <dbl>  <dbl> <fct>         <chr>                       
##  1   5.10   -7.47 0             TCGA-A1-A0SD-01A-11R-A115-07
##  2  -0.192   8.38 2             TCGA-A1-A0SF-01A-11R-A144-07
##  3  18.7    -7.55 1             TCGA-A1-A0SG-01A-11R-A144-07
##  4  -3.91   -5.31 0             TCGA-A1-A0SH-01A-11R-A084-07
##  5   0.914  -5.26 0             TCGA-A1-A0SI-01A-11R-A144-07
##  6  -5.56    4.56 1             TCGA-A1-A0SJ-01A-11R-A084-07
##  7 -10.3    19.4  3             TCGA-A1-A0SK-01A-12R-A084-07
##  8 -11.4    -4.99 2             TCGA-A1-A0SM-01A-11R-A084-07
##  9 -10.3    -3.92 2             TCGA-A1-A0SN-01A-11R-A144-07
## 10  18.4   -14.8  1             TCGA-A1-A0SQ-01A-21R-A144-07
## # … with 241 more rows
…
# Do differential transcription between clusters
counts.norm.SNN %>%
    mutate(factor_of_interest = `cluster SNN` == 3) %>%
    test_differential_abundance(
    ~ factor_of_interest,
    action="get"
   )

## # A tibble: 500 x 8
##    ens        logFC logCPM    LR   PValue      FDR is_de `filter out low counts`
##    <chr>      <dbl>  <dbl> <dbl>    <dbl>    <dbl> <lgl> <lgl>                  
##  1 ENSG00000…  6.05   7.91  431. 7.68e-96 3.83e-93 TRUE  FALSE                  
##  2 ENSG00000…  2.83   9.58  385. 8.13e-86 2.03e-83 TRUE  FALSE                  
##  3 ENSG00000…  7.77   9.01  368. 5.83e-82 9.70e-80 TRUE  FALSE                  
##  4 ENSG00000…  2.58   9.50  322. 6.01e-72 7.50e-70 TRUE  FALSE                  
##  5 ENSG00000…  1.49  10.2   297. 1.32e-66 1.32e-64 TRUE  FALSE                  
##  6 ENSG00000…  3.75   8.21  295. 4.87e-66 4.05e-64 TRUE  FALSE                  
##  7 ENSG00000…  4.50   8.51  286. 4.21e-64 3.00e-62 TRUE  FALSE                  
##  8 ENSG00000…  4.76   6.92  274. 1.23e-61 7.68e-60 TRUE  FALSE                  
##  9 ENSG00000… -5.64  11.1   259. 3.18e-58 1.76e-56 TRUE  FALSE                  
## 10 ENSG00000…  2.80   8.33  248. 7.37e-56 3.68e-54 TRUE  FALSE                  
## # … with 490 more rows
…
From ensembl IDs to gene symbol IDs

We can add gene symbols from ensembl identifiers. This is useful since different resources use ensembl IDs while others use gene symbol IDs.

counts_ensembl %>% annotate_symbol(ens)

## # A tibble: 119 x 8
##    ens   iso   `read count` sample cases_0_project_disease_type
##    <chr> <chr>        <dbl> <chr>  <chr>                       
##  1 ENSG… 13             144 TARGE… Acute Myeloid Leukemia      
##  2 ENSG… 13              72 TARGE… Acute Myeloid Leukemia      
##  3 ENSG… 13               0 TARGE… Acute Myeloid Leukemia      
##  4 ENSG… 13            1099 TARGE… Acute Myeloid Leukemia      
##  5 ENSG… 13              11 TARGE… Acute Myeloid Leukemia      
##  6 ENSG… 13               2 TARGE… Acute Myeloid Leukemia      
##  7 ENSG… 13               3 TARGE… Acute Myeloid Leukemia      
##  8 ENSG… 13            2678 TARGE… Acute Myeloid Leukemia      
##  9 ENSG… 13             751 TARGE… Acute Myeloid Leukemia      
## 10 ENSG… 13               1 TARGE… Acute Myeloid Leukemia      
## # … with 109 more rows, and 3 more variables:
## #   cases_0_samples_0_sample_type <chr>, transcript <fct>, hg <fct>

ADD versus GET modes

Every function takes this structure as input, and outputs either (i) the new information joint to the original input data frame (default), or (ii) just the new information, setting action=“add” or action=“get” respectively. For example, from this data set

  counts.norm 

## # A tibble: 2,635 x 11
##    sample transcript `Cell type` count time  condition `merged transcripts`
##    <chr>  <chr>      <chr>       <dbl> <chr> <chr>                    <dbl>
##  1 SRR17… ABCB4      b_cell       1035 0 d   TRUE                         1
##  2 SRR17… ABCB9      b_cell         45 0 d   TRUE                         1
##  3 SRR17… ACAP1      b_cell       7151 0 d   TRUE                         1
##  4 SRR17… ACHE       b_cell          2 0 d   TRUE                         1
##  5 SRR17… ACP5       b_cell       2278 0 d   TRUE                         1
##  6 SRR17… ADAM28     b_cell      11156 0 d   TRUE                         1
##  7 SRR17… ADAMDEC1   b_cell         72 0 d   TRUE                         1
##  8 SRR17… ADAMTS3    b_cell          0 0 d   TRUE                         1
##  9 SRR17… ADRB2      b_cell        298 0 d   TRUE                         1
## 10 SRR17… AIF1       b_cell          8 0 d   TRUE                         1
## # … with 2,625 more rows, and 4 more variables: `count scaled` <dbl>,
## #   TMM <dbl>, multiplier <dbl>, `filter out low counts` <lgl>

action=“add” (Default)
We can add the MDS dimensions to the original data set

  counts.norm %>%
    reduce_dimensions(
        .abundance = `count scaled`, 
        method="MDS" , 
        .element = sample, 
        .feature = transcript, 
        .dims = 3, 
        action="add"
    )

## # A tibble: 2,635 x 14
##    sample transcript `Cell type` count time  condition `merged transcripts`
##    <chr>  <chr>      <chr>       <dbl> <chr> <chr>                    <dbl>
##  1 SRR17… ABCB4      b_cell       1035 0 d   TRUE                         1
##  2 SRR17… ABCB9      b_cell         45 0 d   TRUE                         1
##  3 SRR17… ACAP1      b_cell       7151 0 d   TRUE                         1
##  4 SRR17… ACHE       b_cell          2 0 d   TRUE                         1
##  5 SRR17… ACP5       b_cell       2278 0 d   TRUE                         1
##  6 SRR17… ADAM28     b_cell      11156 0 d   TRUE                         1
##  7 SRR17… ADAMDEC1   b_cell         72 0 d   TRUE                         1
##  8 SRR17… ADAMTS3    b_cell          0 0 d   TRUE                         1
##  9 SRR17… ADRB2      b_cell        298 0 d   TRUE                         1
## 10 SRR17… AIF1       b_cell          8 0 d   TRUE                         1
## # … with 2,625 more rows, and 7 more variables: `count scaled` <dbl>,
## #   TMM <dbl>, multiplier <dbl>, `filter out low counts` <lgl>, Dim1 <dbl>,
## #   Dim2 <dbl>, Dim3 <dbl>
…
