…
Create tidybulk tibble. It memorises key column names

tt = counts_mini %>% tidybulk(sample, transcript, count)

All tidybulk methods are directly compatible with SummarizedExperiment as well.

Aggregate transcripts

tidybulk provide the aggregate_duplicates function to aggregate duplicated transcripts (e.g., isoforms, ensembl). For example, we often have to convert ensembl symbols to gene/transcript symbol, but in doing so we have to deal with duplicates. aggregate_duplicates takes a tibble and column names (as symbols; for sample, transcript and count) as arguments and returns a tibble with aggregate transcript with the same name. All the rest of the column are appended, and factors and boolean are appended as characters.

tt.aggr =  tt %>% aggregate_duplicates(     aggregation_function = sum )

tt.aggr

## # A tibble: 2,635 x 7
##    sample     transcript `Cell type` count time  condition `merged transcripts`
##    <chr>      <chr>      <chr>       <dbl> <chr> <chr>                    <dbl>
##  1 SRR1740034 TNFRSF4    b_cell          6 0 d   TRUE                         1
##  2 SRR1740034 PLCH2      b_cell        926 0 d   TRUE                         1
##  3 SRR1740034 PADI4      b_cell         21 0 d   TRUE                         1
##  4 SRR1740034 PAX7       b_cell          0 0 d   TRUE                         1
##  5 SRR1740034 CDA        b_cell          1 0 d   TRUE                         1
##  6 SRR1740034 RCAN3      b_cell        905 0 d   TRUE                         1
##  7 SRR1740034 SMPDL3B    b_cell          3 0 d   TRUE                         1
##  8 SRR1740034 EPB41      b_cell       4667 0 d   TRUE                         1
##  9 SRR1740034 LCK        b_cell        436 0 d   TRUE                         1
## 10 SRR1740034 COL8A2     b_cell          1 0 d   TRUE                         1
## #  with 2,625 more rows
…
Scale counts

We may want to compensate for sequencing depth, scaling the transcript abundance (e.g., with TMM algorithm, Robinson and Oshlack doi.org/10.1186/gb-2010-11-3-r25). scale_abundance takes a tibble, column names (as symbols; for sample, transcript and count) and a method as arguments and returns a tibble with additional columns with scaled data as <NAME OF COUNT COLUMN>_scaled.

tt.norm =  tt.aggr %>% scale_abundance(method="TMM")

tt.norm %>% select(`count`, count_scaled, lowly_abundant, everything())

## # A tibble: 2,635 x 11
##    count count_scaled lowly_abundant sample transcript `Cell type` time 
##    <dbl>        <dbl> <lgl>          <chr>  <chr>      <chr>       <chr>
##  1  1035      1900.   TRUE           SRR17 ABCB4      b_cell      0 d  
##  2    45        82.6  TRUE           SRR17 ABCB9      b_cell      0 d  
##  3  7151     13129.   FALSE          SRR17 ACAP1      b_cell      0 d  
##  4     2         3.67 TRUE           SRR17 ACHE       b_cell      0 d  
##  5  2278      4182.   FALSE          SRR17 ACP5       b_cell      0 d  
##  6 11156     20482.   TRUE           SRR17 ADAM28     b_cell      0 d  
##  7    72       132.   TRUE           SRR17 ADAMDEC1   b_cell      0 d  
##  8     0         0    TRUE           SRR17 ADAMTS3    b_cell      0 d  
##  9   298       547.   FALSE          SRR17 ADRB2      b_cell      0 d  
## 10     8        14.7  TRUE           SRR17 AIF1       b_cell      0 d  
## #  with 2,625 more rows, and 4 more variables: condition <chr>, `merged
## #   transcripts` <dbl>, TMM <dbl>, multiplier <dbl>
…
tt.norm.tSNE %>%
    select(contains("tSNE", ignore.case = FALSE), sample, Call) %>%
    distinct()

## # A tibble: 251 x 4
##      tSNE1  tSNE2 sample                       Call 
##      <dbl>  <dbl> <chr>                        <fct>
##  1   6.14    4.30 TCGA-A1-A0SD-01A-11R-A115-07 LumA 
##  2  -8.17   -3.03 TCGA-A1-A0SF-01A-11R-A144-07 LumA 
##  3  11.2    10.4  TCGA-A1-A0SG-01A-11R-A144-07 LumA 
##  4   0.749   3.06 TCGA-A1-A0SH-01A-11R-A084-07 LumA 
##  5   5.48    2.10 TCGA-A1-A0SI-01A-11R-A144-07 LumB 
##  6  -3.46    2.62 TCGA-A1-A0SJ-01A-11R-A084-07 LumA 
##  7 -26.9     8.42 TCGA-A1-A0SK-01A-12R-A084-07 Basal
##  8  -0.114 -18.3  TCGA-A1-A0SM-01A-11R-A084-07 LumA 
##  9   1.20  -17.6  TCGA-A1-A0SN-01A-11R-A144-07 LumB 
## 10  10.0    17.3  TCGA-A1-A0SQ-01A-21R-A144-07 LumA 
## #  with 241 more rows
…
Test differential abundance

We may want to test for differential transcription between sample-wise factors of interest (e.g., with edgeR). test_differential_abundance takes a tibble, column names (as symbols; for sample, transcript and count) and a formula representing the desired linear model as arguments and returns a tibble with additional columns for the statistics from the hypothesis test (e.g.,  log fold change, p-value and false discovery rate).

tt %>%  test_differential_abundance(  ~ condition,  action="only")

## # A tibble: 527 x 8
##    transcript  logFC logCPM     F   PValue    FDR significant lowly_abundant
##    <chr>       <dbl>  <dbl> <dbl>    <dbl>  <dbl> <lgl>       <lgl>         
##  1 CLEC7A     -11.6   12.7  109.  0.000142 0.0170 TRUE        FALSE         
##  2 HK3        -12.2   13.5   90.1 0.000225 0.0170 TRUE        FALSE         
##  3 APOBEC3A    -8.93  11.1   77.7 0.000319 0.0170 TRUE        FALSE         
##  4 IGSF6       -7.78  10.5   71.8 0.000385 0.0170 TRUE        FALSE         
##  5 RASSF4      -8.38  12.4   69.0 0.000422 0.0170 TRUE        FALSE         
##  6 IL2RA        8.37   9.18  65.5 0.000477 0.0170 TRUE        FALSE         
##  7 TLR8        -9.94  11.6   64.3 0.000497 0.0170 TRUE        FALSE         
##  8 C5AR1       -9.97  12.2   56.7 0.000667 0.0170 TRUE        FALSE         
##  9 FCN1       -12.6   15.4   56.6 0.000670 0.0170 TRUE        FALSE         
## 10 CCR7         8.35  11.9   56.0 0.000687 0.0170 TRUE        FALSE         
## #  with 517 more rows
…
Adjust counts

We may want to adjust counts for (known) unwanted variation. adjust_abundance takes as arguments a tibble, column names (as symbols; for sample, transcript and count) and a formula representing the desired linear model where the first covariate is the factor of interest and the second covariate is the unwanted variation, and returns a tibble with additional columns for the adjusted counts as <COUNT COLUMN>_adjusted. At the moment just an unwanted covariated is allowed at a time.

tt.norm.adj =
    tt.norm.batch %>%
      adjust_abundance(
        ~ factor_of_interest + batch,
        .abundance = count_scaled,
        action = "only"
      )

tt.norm.adj

## # A tibble: 910 x 3
##    transcript sample     count_scaled_adjusted
##    <chr>      <chr>                      <int>
##  1 ACAP1      SRR1740034                 14644
##  2 ACP5       SRR1740034                  3903
##  3 ADRB2      SRR1740034                   719
##  4 AIM2       SRR1740034                  3707
##  5 ALOX5      SRR1740034                  7358
##  6 APOBEC3G   SRR1740034                  3104
##  7 APOL3      SRR1740034                  2417
##  8 APOL6      SRR1740034                  1110
##  9 ARHGAP22   SRR1740034                    69
## 10 BACH2      SRR1740034                 29826
## #  with 900 more rows
…
Cluster samples

We may want to cluster our data (e.g., using k-means sample-wise). cluster_elements takes as arguments a tibble, column names (as symbols; for sample, transcript and count) and returns a tibble with additional columns for the cluster annotation. At the moment only k-means clustering is supported, the plan is to introduce more clustering methods.

k-means

tt.norm.cluster = tt.norm %>%
  cluster_elements(.abundance = count_scaled, method="kmeans",  centers = 2 )

tt.norm.cluster

## # A tibble: 2,635 x 12
##    sample transcript `Cell type` count time  condition `merged transcripts`
##    <chr>  <chr>      <chr>       <dbl> <chr> <chr>                    <dbl>
##  1 SRR17 ABCB4      b_cell       1035 0 d   TRUE                         1
##  2 SRR17 ABCB9      b_cell         45 0 d   TRUE                         1
##  3 SRR17 ACAP1      b_cell       7151 0 d   TRUE                         1
##  4 SRR17 ACHE       b_cell          2 0 d   TRUE                         1
##  5 SRR17 ACP5       b_cell       2278 0 d   TRUE                         1
##  6 SRR17 ADAM28     b_cell      11156 0 d   TRUE                         1
##  7 SRR17 ADAMDEC1   b_cell         72 0 d   TRUE                         1
##  8 SRR17 ADAMTS3    b_cell          0 0 d   TRUE                         1
##  9 SRR17 ADRB2      b_cell        298 0 d   TRUE                         1
## 10 SRR17 AIF1       b_cell          8 0 d   TRUE                         1
## #  with 2,625 more rows, and 5 more variables: count_scaled <dbl>, TMM <dbl>,
## #   multiplier <dbl>, lowly_abundant <lgl>, `cluster kmeans` <fct>
…
## Modularity Optimizer version 1.3.0 by Ludo Waltman and Nees Jan van Eck
## 
## Number of nodes: 251
## Number of edges: 8484
## 
## Running Louvain algorithm...
## Maximum modularity in 10 random starts: 0.5329
## Number of communities: 4
## Elapsed time: 0 seconds

tt.norm.SNN %>%
    pivot_sample()

## # A tibble: 251 x 5
##    sample                       Call    tSNE1  tSNE2 `cluster SNN`
##    <chr>                        <fct>   <dbl>  <dbl> <fct>        
##  1 TCGA-A1-A0SD-01A-11R-A115-07 LumA    6.14    4.30 0            
##  2 TCGA-A1-A0SF-01A-11R-A144-07 LumA   -8.17   -3.03 2            
##  3 TCGA-A1-A0SG-01A-11R-A144-07 LumA   11.2    10.4  1            
##  4 TCGA-A1-A0SH-01A-11R-A084-07 LumA    0.749   3.06 0            
##  5 TCGA-A1-A0SI-01A-11R-A144-07 LumB    5.48    2.10 0            
##  6 TCGA-A1-A0SJ-01A-11R-A084-07 LumA   -3.46    2.62 1            
##  7 TCGA-A1-A0SK-01A-12R-A084-07 Basal -26.9     8.42 3            
##  8 TCGA-A1-A0SM-01A-11R-A084-07 LumA   -0.114 -18.3  2            
##  9 TCGA-A1-A0SN-01A-11R-A144-07 LumB    1.20  -17.6  2            
## 10 TCGA-A1-A0SQ-01A-21R-A144-07 LumA   10.0    17.3  1            
## #  with 241 more rows
…
# Do differential transcription between clusters
tt.norm.SNN %>%
    mutate(factor_of_interest = `cluster SNN` == 3) %>%
    test_differential_abundance(
    ~ factor_of_interest,
    action="only"
   )

## # A tibble: 500 x 8
##    ens           logFC logCPM     F   PValue      FDR significant lowly_abundant
##    <chr>         <dbl>  <dbl> <dbl>    <dbl>    <dbl> <lgl>       <lgl>         
##  1 ENSG00000065  1.59  10.2   395. 1.31e-53 6.56e-51 TRUE        FALSE         
##  2 ENSG00000111  2.94   9.64  389. 4.51e-53 1.13e-50 TRUE        FALSE         
##  3 ENSG00000140  2.69   9.54  345. 3.67e-49 6.12e-47 TRUE        FALSE         
##  4 ENSG00000186  6.17   7.99  343. 5.74e-49 7.18e-47 TRUE        FALSE         
##  5 ENSG00000181  7.93   9.12  299. 8.93e-45 8.93e-43 TRUE        FALSE         
##  6 ENSG00000137  3.88   8.28  267. 1.85e-41 1.54e-39 TRUE        FALSE         
##  7 ENSG00000083  1.37   9.39  247. 2.79e-39 1.99e-37 TRUE        FALSE         
##  8 ENSG00000143  1.02  10.7   246. 3.56e-39 2.22e-37 TRUE        FALSE         
##  9 ENSG00000124  4.66   8.62  238. 2.37e-38 1.32e-36 TRUE        FALSE         
## 10 ENSG00000092  2.91   8.40  232. 1.36e-37 6.82e-36 TRUE        FALSE         
## #  with 490 more rows
…
From ensembl IDs to gene symbol IDs

We can add gene symbols from ensembl identifiers. This is useful since different resources use ensembl IDs while others use gene symbol IDs.

counts_ensembl %>% ensembl_to_symbol(ens)

## # A tibble: 119 x 8
##    ens   iso   `read count` sample cases_0_project_disease_type
##    <chr> <chr>        <dbl> <chr>  <chr>                       
##  1 ENSG 13             144 TARGE Acute Myeloid Leukemia      
##  2 ENSG 13              72 TARGE Acute Myeloid Leukemia      
##  3 ENSG 13               0 TARGE Acute Myeloid Leukemia      
##  4 ENSG 13            1099 TARGE Acute Myeloid Leukemia      
##  5 ENSG 13              11 TARGE Acute Myeloid Leukemia      
##  6 ENSG 13               2 TARGE Acute Myeloid Leukemia      
##  7 ENSG 13               3 TARGE Acute Myeloid Leukemia      
##  8 ENSG 13            2678 TARGE Acute Myeloid Leukemia      
##  9 ENSG 13             751 TARGE Acute Myeloid Leukemia      
## 10 ENSG 13               1 TARGE Acute Myeloid Leukemia      
## #  with 109 more rows, and 3 more variables:
## #   cases_0_samples_0_sample_type <chr>, transcript <chr>, ref_genome <chr>

ADD versus GET versus ONLY modes

Every function takes a tidytranscriptomics structured data as input, and (i) with action=“add” outputs the new information joint to the original input data frame (default), (ii) with action=“get” the new information with the sample or transcript relative informatin depending on what the analysis is about, or (iii) with action=“only” just the new information. For example, from this data set

  tt.norm

## # A tibble: 2,635 x 11
##    sample transcript `Cell type` count time  condition `merged transcripts`
##    <chr>  <chr>      <chr>       <dbl> <chr> <chr>                    <dbl>
##  1 SRR17 ABCB4      b_cell       1035 0 d   TRUE                         1
##  2 SRR17 ABCB9      b_cell         45 0 d   TRUE                         1
##  3 SRR17 ACAP1      b_cell       7151 0 d   TRUE                         1
##  4 SRR17 ACHE       b_cell          2 0 d   TRUE                         1
##  5 SRR17 ACP5       b_cell       2278 0 d   TRUE                         1
##  6 SRR17 ADAM28     b_cell      11156 0 d   TRUE                         1
##  7 SRR17 ADAMDEC1   b_cell         72 0 d   TRUE                         1
##  8 SRR17 ADAMTS3    b_cell          0 0 d   TRUE                         1
##  9 SRR17 ADRB2      b_cell        298 0 d   TRUE                         1
## 10 SRR17 AIF1       b_cell          8 0 d   TRUE                         1
## #  with 2,625 more rows, and 4 more variables: count_scaled <dbl>, TMM <dbl>,
## #   multiplier <dbl>, lowly_abundant <lgl>

action=“add” (Default)
We can add the MDS dimensions to the original data set

  tt.norm %>%
    reduce_dimensions(
        .abundance = count_scaled,
        method="MDS" ,
        .element = sample,
        .feature = transcript,
        .dims = 3,
        action="add"
    )

## # A tibble: 2,635 x 14
##    sample transcript `Cell type` count time  condition `merged transcripts`
##    <chr>  <chr>      <chr>       <dbl> <chr> <chr>                    <dbl>
##  1 SRR17 ABCB4      b_cell       1035 0 d   TRUE                         1
##  2 SRR17 ABCB9      b_cell         45 0 d   TRUE                         1
##  3 SRR17 ACAP1      b_cell       7151 0 d   TRUE                         1
##  4 SRR17 ACHE       b_cell          2 0 d   TRUE                         1
##  5 SRR17 ACP5       b_cell       2278 0 d   TRUE                         1
##  6 SRR17 ADAM28     b_cell      11156 0 d   TRUE                         1
##  7 SRR17 ADAMDEC1   b_cell         72 0 d   TRUE                         1
##  8 SRR17 ADAMTS3    b_cell          0 0 d   TRUE                         1
##  9 SRR17 ADRB2      b_cell        298 0 d   TRUE                         1
## 10 SRR17 AIF1       b_cell          8 0 d   TRUE                         1
## #  with 2,625 more rows, and 7 more variables: count_scaled <dbl>, TMM <dbl>,
## #   multiplier <dbl>, lowly_abundant <lgl>, Dim1 <dbl>, Dim2 <dbl>, Dim3 <dbl>
…
