distinct — distinct • tidybulk
…
      ...
      Data frames to combine (See dplyr)

      .keep_all
      If TRUE, keep all variables in .data. If a combination of ... is not distinct, this keeps the first row of values. (See dplyr)

    Value

    A tt object

    Examples

distinct(tidybulk::counts_mini)

#> # A tibble: 2,635 x 6
#>    sample     transcript `Cell type` count time  condition
#>    <chr>      <chr>      <chr>       <dbl> <chr> <lgl>    
#>  1 SRR1740034 TNFRSF4    b_cell          6 0 d   TRUE     
#>  2 SRR1740034 PLCH2      b_cell        926 0 d   TRUE     
#>  3 SRR1740034 PADI4      b_cell         21 0 d   TRUE     
#>  4 SRR1740034 PAX7       b_cell          0 0 d   TRUE     
#>  5 SRR1740034 CDA        b_cell          1 0 d   TRUE     
#>  6 SRR1740034 RCAN3      b_cell        905 0 d   TRUE     
#>  7 SRR1740034 SMPDL3B    b_cell          3 0 d   TRUE     
#>  8 SRR1740034 EPB41      b_cell       4667 0 d   TRUE     
#>  9 SRR1740034 LCK        b_cell        436 0 d   TRUE     
#> 10 SRR1740034 COL8A2     b_cell          1 0 d   TRUE     
#> # … with 2,625 more rows
…
