Subset rows using column values — filter • tidybulk
…
    [filter_all()], [filter_if()] and [filter_at()].

Other single table verbs:
arrange(),
mutate(),
rename(),
summarise()

    Examples

data(se)

se |> tidybulk() |> filter(dex=="untrt")
#> # A tibble: 400 × 13
#>    .feature        .sample   counts SampleName cell  dex   albut Run   avgLength
#>    <chr>           <chr>      <int> <fct>      <fct> <fct> <fct> <fct>     <int>
#>  1 LRG_239         SRR10395…      0 GSM1275862 N613… untrt untrt SRR1…       126
#>  2 ENSG00000233845 SRR10395…      0 GSM1275862 N613… untrt untrt SRR1…       126
#>  3 ENSG00000199201 SRR10395…      0 GSM1275862 N613… untrt untrt SRR1…       126
#>  4 ENSG00000270278 SRR10395…      0 GSM1275862 N613… untrt untrt SRR1…       126
#>  5 ENSG00000234453 SRR10395…      0 GSM1275862 N613… untrt untrt SRR1…       126
#>  6 ENSG00000272397 SRR10395…      0 GSM1275862 N613… untrt untrt SRR1…       126
#>  7 ENSG00000207997 SRR10395…      0 GSM1275862 N613… untrt untrt SRR1…       126
#>  8 ENSG00000201884 SRR10395…      0 GSM1275862 N613… untrt untrt SRR1…       126
#>  9 ENSG00000224188 SRR10395…      0 GSM1275862 N613… untrt untrt SRR1…       126
#> 10 ENSG00000122707 SRR10395…  11225 GSM1275862 N613… untrt untrt SRR1…       126
#> # ℹ 390 more rows
#> # ℹ 4 more variables: Experiment <fct>, Sample <fct>, BioSample <fct>,
#> #   GRangesList <list>
…
