find abundant transcripts — identify_abundant • tidybulk
…
    Examples

  identify_abundant(
  tidybulk::counts_mini,
      sample,
      transcript,
      `count`
  )

#> No group or design set. Assuming all samples belong to one group.
#> # A tibble: 2,635 x 7
#>    sample     transcript `Cell type` count time  condition .abundant
#>    <chr>      <chr>      <chr>       <dbl> <chr> <lgl>     <lgl>    
#>  1 SRR1740034 TNFRSF4    b_cell          6 0 d   TRUE      FALSE    
#>  2 SRR1740034 PLCH2      b_cell        926 0 d   TRUE      TRUE     
#>  3 SRR1740034 PADI4      b_cell         21 0 d   TRUE      TRUE     
#>  4 SRR1740034 PAX7       b_cell          0 0 d   TRUE      FALSE    
#>  5 SRR1740034 CDA        b_cell          1 0 d   TRUE      FALSE    
#>  6 SRR1740034 RCAN3      b_cell        905 0 d   TRUE      TRUE     
#>  7 SRR1740034 SMPDL3B    b_cell          3 0 d   TRUE      FALSE    
#>  8 SRR1740034 EPB41      b_cell       4667 0 d   TRUE      TRUE     
#>  9 SRR1740034 LCK        b_cell        436 0 d   TRUE      TRUE     
#> 10 SRR1740034 COL8A2     b_cell          1 0 d   TRUE      FALSE    
#> # … with 2,625 more rows
…
