Scale the counts of transcripts/genes — scale_abundance • tidybulk
…
Scales transcript abundance compensating for sequencing depth
(e.g., with TMM algorithm, Robinson and Oshlack doi.org/10.1186/gb-2010-11-3-r25).
Lowly transcribed transcripts/genes (defined with minimum_counts and minimum_proportion parameters)
are filtered out from the scaling procedure.
The scaling inference is then applied back to all unfiltered data.

Underlying method
edgeR::calcNormFactors(.data, method = c("TMM","TMMwsp","RLE","upperquartile"))

    Examples

 scale_abundance(tidybulk::counts_mini,  sample, transcript, `count`)
#> No group or design set. Assuming all samples belong to one group.
#> # A tibble: 2,635 x 10
#>    sample transcript `Cell type` count time  condition count_scaled   TMM
#>    <chr>  <chr>      <chr>       <dbl> <chr> <lgl>            <dbl> <dbl>
#>  1 SRR17… ABCB4      b_cell       1035 0 d   TRUE           1900.   0.791
#>  2 SRR17… ABCB9      b_cell         45 0 d   TRUE             82.6  0.791
#>  3 SRR17… ACAP1      b_cell       7151 0 d   TRUE          13129.   0.791
#>  4 SRR17… ACHE       b_cell          2 0 d   TRUE              3.67 0.791
#>  5 SRR17… ACP5       b_cell       2278 0 d   TRUE           4182.   0.791
#>  6 SRR17… ADAM28     b_cell      11156 0 d   TRUE          20482.   0.791
#>  7 SRR17… ADAMDEC1   b_cell         72 0 d   TRUE            132.   0.791
#>  8 SRR17… ADAMTS3    b_cell          0 0 d   TRUE              0    0.791
#>  9 SRR17… ADRB2      b_cell        298 0 d   TRUE            547.   0.791
#> 10 SRR17… AIF1       b_cell          8 0 d   TRUE             14.7  0.791
#> # … with 2,625 more rows, and 2 more variables: multiplier <dbl>,
#> #   lowly_abundant <lgl>
…
