Test of stratification of biological replicates based on tissue composition, one cell-type at the time, using Kaplan-meier curves. — test_stratification_cellularity • tidybulk
…
nest(data = -sample) %>%
mutate(
  days = c(1, 10, 500, 1000, 2000),
  dead = c(1, 1, 1, 0, 1)
) %>%
unnest(data) %>%
test_stratification_cellularity(
  survival::Surv(days, dead) ~ .,
  sample,
  transcript,
  count,
  cores = 1
)

#> # A tibble: 22 x 6
#>    .cell_type  cell_type_propor… .low_cellularit… .high_cellulari…  pvalue plot 
#>    <chr>       <list>                       <dbl>            <dbl>   <dbl> <lis>
#>  1 B cells na… <tibble [5 × 7]>              3.35            0.65   0.0389 <ggs…
#>  2 B cells me… <tibble [5 × 7]>              3.35            0.65   0.0389 <ggs…
#>  3 Plasma cel… <tibble [5 × 7]>              2.43            1.57   0.502  <ggs…
#>  4 T cells CD8 <tibble [5 × 7]>              3.22            0.783  0.299  <ggs…
#>  5 T cells CD… <tibble [5 × 7]>              2.43            1.57   0.502  <ggs…
#>  6 T cells CD… <tibble [5 × 7]>              2.77            1.23   0.782  <ggs…
#>  7 T cells CD… <tibble [5 × 7]>              3.8             0.2    0.0455 <ggs…
#>  8 T cells fo… <tibble [5 × 7]>              3.35            0.65   0.0389 <ggs…
#>  9 T cells re… <tibble [5 × 7]>              3.22            0.783  0.774  <ggs…
#> 10 T cells ga… <tibble [5 × 7]>             NA              NA     NA      <NUL…
#> # … with 12 more rows
…
