Perform differential transcription testing using edgeR quasi-likelihood (QLT), edgeR likelihood-ratio (LR), limma-voom, limma-voom-with-quality-weights or DESeq2 — test_differential_abundance • tidybu
…
 tidybulk::counts_mini %>%
 tidybulk(sample, transcript, count) %>%
 identify_abundant() %>%
  test_differential_abundance( ~ condition )

#> No group or design set. Assuming all samples belong to one group.
#> =====================================
#> tidybulk says: All testing methods use raw counts, irrespective of if scale_abundance
#> or adjust_abundance have been calculated. Therefore, it is essential to add covariates
#> such as batch effects (if applicable) in the formula.
#> =====================================
#> tidybulk says: The design column names are "(Intercept), conditionTRUE"
#> tidybulk says: to access the raw results (fitted GLM) do `attr(..., "internals")$edgeR`
#> # A tibble: 2,635 x 12
#>    sample   transcript `Cell type` count time  condition .abundant  logFC logCPM
#>    <chr>    <chr>      <chr>       <dbl> <chr> <lgl>     <lgl>      <dbl>  <dbl>
#>  1 SRR1740… TNFRSF4    b_cell          6 0 d   TRUE      FALSE     NA       NA  
#>  2 SRR1740… PLCH2      b_cell        926 0 d   TRUE      TRUE       5.14    10.8
#>  3 SRR1740… PADI4      b_cell         21 0 d   TRUE      TRUE      -6.27    11.0
#>  4 SRR1740… PAX7       b_cell          0 0 d   TRUE      FALSE     NA       NA  
#>  5 SRR1740… CDA        b_cell          1 0 d   TRUE      FALSE     NA       NA  
#>  6 SRR1740… RCAN3      b_cell        905 0 d   TRUE      TRUE       2.67    11.5
#>  7 SRR1740… SMPDL3B    b_cell          3 0 d   TRUE      FALSE     NA       NA  
#>  8 SRR1740… EPB41      b_cell       4667 0 d   TRUE      TRUE       0.858   13.2
#>  9 SRR1740… LCK        b_cell        436 0 d   TRUE      TRUE       6.88    12.2
#> 10 SRR1740… COL8A2     b_cell          1 0 d   TRUE      FALSE     NA       NA  
#> # … with 2,625 more rows, and 3 more variables: F <dbl>, PValue <dbl>,
#> #   FDR <dbl>
…
#> No group or design set. Assuming all samples belong to one group.
#> =====================================
#> tidybulk says: All testing methods use raw counts, irrespective of if scale_abundance
#> or adjust_abundance have been calculated. Therefore, it is essential to add covariates
#> such as batch effects (if applicable) in the formula.
#> =====================================
#> tidybulk says: The design column names are "conditionFALSE, conditionTRUE"
#> tidybulk says: to access the raw results (fitted GLM) do `attr(..., "internals")$edgeR`
#> # A tibble: 2,635 x 12
#>    sample     transcript `Cell type` count time  condition .abundant
#>    <chr>      <chr>      <chr>       <dbl> <chr> <lgl>     <lgl>    
#>  1 SRR1740034 TNFRSF4    b_cell          6 0 d   TRUE      FALSE    
#>  2 SRR1740034 PLCH2      b_cell        926 0 d   TRUE      TRUE     
#>  3 SRR1740034 PADI4      b_cell         21 0 d   TRUE      TRUE     
#>  4 SRR1740034 PAX7       b_cell          0 0 d   TRUE      FALSE    
#>  5 SRR1740034 CDA        b_cell          1 0 d   TRUE      FALSE    
#>  6 SRR1740034 RCAN3      b_cell        905 0 d   TRUE      TRUE     
#>  7 SRR1740034 SMPDL3B    b_cell          3 0 d   TRUE      FALSE    
#>  8 SRR1740034 EPB41      b_cell       4667 0 d   TRUE      TRUE     
#>  9 SRR1740034 LCK        b_cell        436 0 d   TRUE      TRUE     
#> 10 SRR1740034 COL8A2     b_cell          1 0 d   TRUE      FALSE    
#> # … with 2,625 more rows, and 5 more variables:
#> #   logFC___conditionTRUE - conditionFALSE <dbl>,
#> #   logCPM___conditionTRUE - conditionFALSE <dbl>,
#> #   F___conditionTRUE - conditionFALSE <dbl>,
#> #   PValue___conditionTRUE - conditionFALSE <dbl>,
#> #   FDR___conditionTRUE - conditionFALSE <dbl>
…
#> tidybulk says: All testing methods use raw counts, irrespective of if scale_abundance
#> or adjust_abundance have been calculated. Therefore, it is essential to add covariates
#> such as batch effects (if applicable) in the formula.
#> =====================================
#> estimating size factors
#> estimating dispersions
#> gene-wise dispersion estimates
#> mean-dispersion relationship
#> -- note: fitType='parametric', but the dispersion trend was not well captured by the
#>    function: y = a/x + b, and a local regression fit was automatically substituted.
#>    specify fitType='local' or 'mean' to avoid this message next time.
#> final dispersion estimates
#> fitting model and testing
#> tidybulk says: to access the raw results (fitted GLM) do `attr(..., "internals")$DESeq2`
#> # A tibble: 2,635 x 13
#>    sample     transcript `Cell type` count time  condition .abundant baseMean
#>    <chr>      <chr>      <chr>       <dbl> <chr> <lgl>     <lgl>        <dbl>
#>  1 SRR1740034 TNFRSF4    b_cell          6 0 d   TRUE      FALSE          NA 
#>  2 SRR1740034 PLCH2      b_cell        926 0 d   TRUE      TRUE          725.
#>  3 SRR1740034 PADI4      b_cell         21 0 d   TRUE      TRUE          854.
#>  4 SRR1740034 PAX7       b_cell          0 0 d   TRUE      FALSE          NA 
#>  5 SRR1740034 CDA        b_cell          1 0 d   TRUE      FALSE          NA 
#>  6 SRR1740034 RCAN3      b_cell        905 0 d   TRUE      TRUE         1125.
#>  7 SRR1740034 SMPDL3B    b_cell          3 0 d   TRUE      FALSE          NA 
#>  8 SRR1740034 EPB41      b_cell       4667 0 d   TRUE      TRUE         3832.
#>  9 SRR1740034 LCK        b_cell        436 0 d   TRUE      TRUE         1769.
#> 10 SRR1740034 COL8A2     b_cell          1 0 d   TRUE      FALSE          NA 
#> # … with 2,625 more rows, and 5 more variables: log2FoldChange <dbl>,
#> #   lfcSE <dbl>, stat <dbl>, pvalue <dbl>, padj <dbl>
…
#> tidybulk says: All testing methods use raw counts, irrespective of if scale_abundance
#> or adjust_abundance have been calculated. Therefore, it is essential to add covariates
#> such as batch effects (if applicable) in the formula.
#> =====================================
#> estimating size factors
#> estimating dispersions
#> gene-wise dispersion estimates
#> mean-dispersion relationship
#> -- note: fitType='parametric', but the dispersion trend was not well captured by the
#>    function: y = a/x + b, and a local regression fit was automatically substituted.
#>    specify fitType='local' or 'mean' to avoid this message next time.
#> final dispersion estimates
#> fitting model and testing
#> tidybulk says: to access the raw results (fitted GLM) do `attr(..., "internals")$DESeq2`
#> # A tibble: 2,635 x 13
#>    sample     transcript `Cell type` count time  condition .abundant
#>    <chr>      <chr>      <chr>       <dbl> <chr> <lgl>     <lgl>    
#>  1 SRR1740034 TNFRSF4    b_cell          6 0 d   TRUE      FALSE    
#>  2 SRR1740034 PLCH2      b_cell        926 0 d   TRUE      TRUE     
#>  3 SRR1740034 PADI4      b_cell         21 0 d   TRUE      TRUE     
#>  4 SRR1740034 PAX7       b_cell          0 0 d   TRUE      FALSE    
#>  5 SRR1740034 CDA        b_cell          1 0 d   TRUE      FALSE    
#>  6 SRR1740034 RCAN3      b_cell        905 0 d   TRUE      TRUE     
#>  7 SRR1740034 SMPDL3B    b_cell          3 0 d   TRUE      FALSE    
#>  8 SRR1740034 EPB41      b_cell       4667 0 d   TRUE      TRUE     
#>  9 SRR1740034 LCK        b_cell        436 0 d   TRUE      TRUE     
#> 10 SRR1740034 COL8A2     b_cell          1 0 d   TRUE      FALSE    
#> # … with 2,625 more rows, and 6 more variables:
#> #   baseMean___condition TRUE-FALSE <dbl>,
#> #   log2FoldChange___condition TRUE-FALSE <dbl>,
#> #   lfcSE___condition TRUE-FALSE <dbl>, stat___condition TRUE-FALSE <dbl>,
#> #   pvalue___condition TRUE-FALSE <dbl>, padj___condition TRUE-FALSE <dbl>
…
