Add differential tissue composition information to a tbl — test_differential_cellularity • tidybulk
…
    Examples

  test_differential_cellularity(
   tidybulk::counts_mini,
      ~ condition,
      sample,
      transcript,
      count,
      cores = 1
  )

#> # A tibble: 22 x 7
#>    .cell_type cell_type_propo… `estimate_(Inte… estimate_condit…
#>    <chr>      <list>                      <dbl>            <dbl>
#>  1 B cells n… <tibble [5 × 7]>            -2.55             1.74
#>  2 B cells m… <tibble [5 × 7]>            NA               NA   
#>  3 Plasma ce… <tibble [5 × 7]>            NA               NA   
#>  4 T cells C… <tibble [5 × 7]>            NA               NA   
#>  5 T cells C… <tibble [5 × 7]>            NA               NA   
#>  6 T cells C… <tibble [5 × 7]>            -3.93             2.12
#>  7 T cells C… <tibble [5 × 7]>            NA               NA   
#>  8 T cells f… <tibble [5 × 7]>            NA               NA   
#>  9 T cells r… <tibble [5 × 7]>            NA               NA   
#> 10 T cells g… <tibble [5 × 7]>            NA               NA   
#> # … with 12 more rows, and 3 more variables: std.error_conditionTRUE <dbl>,
#> #   statistic_conditionTRUE <dbl>, p.value_conditionTRUE <dbl>
…
