analyse gene over-representation with GSEA — test_gene_overrepresentation • tidybulk
…
	test_getest_gene_overrepresentation
		df_entrez,df_entrez
		.sample = sample,sample
		.entrez = entrez,entrez
		.do_test = do_test,do_test
		species="Homo sapiens""Homo sapiens"
   gene_set=c("C2")
	)
#> 
#> # A tibble: 57 x 10
#>    gs_cat ID    Description GeneRatio BgRatio  pvalue p.adjust qvalue geneID
#>    <chr>  <chr> <chr>       <chr>     <chr>     <dbl>    <dbl>  <dbl> <chr> 
#>  1 C2     HOFF… HOFFMAN_CL… 1/4       10/207… 0.00193   0.0399 0.0133 7293  
#>  2 C2     PEDR… PEDRIOLI_M… 2/4       412/20… 0.00230   0.0399 0.0133 7293/…
#>  3 C2     LIM_… LIM_MAMMAR… 1/4       14/207… 0.00270   0.0399 0.0133 9651  
#>  4 C2     MYLL… MYLLYKANGA… 1/4       18/207… 0.00347   0.0399 0.0133 5081  
#>  5 C2     GAVI… GAVIN_IL2_… 1/4       19/207… 0.00366   0.0399 0.0133 7293  
#>  6 C2     REAC… REACTOME_S… 1/4       26/207… 0.00501   0.0399 0.0133 9651  
#>  7 C2     REAC… REACTOME_T… 1/4       29/207… 0.00558   0.0399 0.0133 7293  
#>  8 C2     PEPP… PEPPER_CHR… 1/4       32/207… 0.00616   0.0399 0.0133 23569 
#>  9 C2     VALK… VALK_AML_C… 1/4       34/207… 0.00654   0.0399 0.0133 7293  
#> 10 C2     LEE_… LEE_AGING_… 1/4       37/207… 0.00712   0.0399 0.0133 7293  
#> # … with 47 more rows, and 1 more variable: Count <int>
…
