unnest — unnest • tidybulk
…
nest(tidybulk(tidybulk::counts_mini, sample, transcript, count), data = -transcript) %>%
unnest(data)

#> # A tibble: 2,635 x 6
#>    transcript sample     `Cell type`       count time  condition
#>    <chr>      <chr>      <chr>             <dbl> <chr> <lgl>    
#>  1 TNFRSF4    SRR1740034 b_cell                6 0 d   TRUE     
#>  2 TNFRSF4    SRR1740035 b_cell                6 1 d   TRUE     
#>  3 TNFRSF4    SRR1740043 monocyte              1 1 d   FALSE    
#>  4 TNFRSF4    SRR1740058 t_cell              401 0 d   TRUE     
#>  5 TNFRSF4    SRR1740067 dendritic_myeloid     4 1 d   FALSE    
#>  6 PLCH2      SRR1740034 b_cell              926 0 d   TRUE     
#>  7 PLCH2      SRR1740035 b_cell             1134 1 d   TRUE     
#>  8 PLCH2      SRR1740043 monocyte             23 1 d   FALSE    
#>  9 PLCH2      SRR1740058 t_cell             2526 0 d   TRUE     
#> 10 PLCH2      SRR1740067 dendritic_myeloid    21 1 d   FALSE    
#> # … with 2,625 more rows

nest(tidybulk(tidybulk::counts_mini, sample, transcript, count), data = -transcript)

#> # A tibble: 527 x 2
#>    transcript data            
#>    <chr>      <list>          
#>  1 TNFRSF4    <tibble [5 × 5]>
#>  2 PLCH2      <tibble [5 × 5]>
#>  3 PADI4      <tibble [5 × 5]>
#>  4 PAX7       <tibble [5 × 5]>
#>  5 CDA        <tibble [5 × 5]>
#>  6 RCAN3      <tibble [5 × 5]>
#>  7 SMPDL3B    <tibble [5 × 5]>
#>  8 EPB41      <tibble [5 × 5]>
#>  9 LCK        <tibble [5 × 5]>
#> 10 COL8A2     <tibble [5 × 5]>
#> # … with 517 more rows
…
