Overview of the tidybulk package • tidybulk
…
cmds = cmds %$% 
    cmdscale.out |>
    setNames(sprintf("Dim%s", 1:6))

cmds$cell_type = tibble_counts[
    match(tibble_counts$sample, rownames(cmds)),
    "Cell.type"
]

On the x and y axes axis we have the reduced dimensions 1 to 3, data
is coloured by cell type.

counts_SE.norm.MDS |> pivot_sample()  |> select(contains("Dim"), everything())

## # A tibble: 48 × 14
##      Dim1   Dim2   Dim3     Dim4    Dim5    Dim6 .sample   Cell.…¹ time  condi…²
##     <dbl>  <dbl>  <dbl>    <dbl>   <dbl>   <dbl> <chr>     <fct>   <fct> <lgl>  
##  1 -1.46   0.220 -1.68   0.0553   0.0658 -0.126  SRR17400… b_cell  0 d   TRUE   
##  2 -1.46   0.226 -1.71   0.0300   0.0454 -0.137  SRR17400… b_cell  1 d   TRUE   
##  3 -1.44   0.193 -1.60   0.0890   0.0503 -0.121  SRR17400… b_cell  3 d   TRUE   
##  4 -1.44   0.198 -1.67   0.0891   0.0543 -0.110  SRR17400… b_cell  7 d   TRUE   
##  5  0.243 -1.42   0.182  0.00642 -0.503  -0.131  SRR17400… dendri… 0 d   FALSE  
##  6  0.191 -1.42   0.195  0.0180  -0.457  -0.130  SRR17400… dendri… 1 d   FALSE  
##  7  0.257 -1.42   0.152  0.0130  -0.582  -0.0927 SRR17400… dendri… 3 d   FALSE  
##  8  0.162 -1.43   0.189  0.0232  -0.452  -0.109  SRR17400… dendri… 7 d   FALSE  
##  9  0.516 -1.47   0.240 -0.251    0.457  -0.119  SRR17400… monocy… 0 d   FALSE  
## 10  0.514 -1.41   0.231 -0.219    0.458  -0.131  SRR17400… monocy… 1 d   FALSE  
## # … with 38 more rows, 4 more variables: batch <fct>, factor_of_interest <lgl>,
## #   TMM <dbl>, multiplier <dbl>, and abbreviated variable names ¹​Cell.type,
## #   ²​condition
…
count_m_log = log(count_m + 1)
pc = count_m_log |> prcomp(scale = TRUE)
variance = pc$sdev^2
variance = (variance / sum(variance))[1:6]
pc$cell_type = counts[
    match(counts$sample, rownames(pc)),
    "Cell.type"
]

On the x and y axes axis we have the reduced dimensions 1 to 3, data
is coloured by cell type.

counts_SE.norm.PCA |> pivot_sample() |> select(contains("PC"), everything())

## # A tibble: 48 × 14
##        PC1   PC2    PC3     PC4    PC5   PC6 .sample Cell.…¹ time  condi…² batch
##      <dbl> <dbl>  <dbl>   <dbl>  <dbl> <dbl> <chr>   <fct>   <fct> <lgl>   <fct>
##  1 -12.6   -2.52 -14.9  -0.424  -0.592 -1.22 SRR174… b_cell  0 d   TRUE    0    
##  2 -12.6   -2.57 -15.2  -0.140  -0.388 -1.30 SRR174… b_cell  1 d   TRUE    1    
##  3 -12.6   -2.41 -14.5  -0.714  -0.344 -1.10 SRR174… b_cell  3 d   TRUE    1    
##  4 -12.5   -2.34 -14.9  -0.816  -0.427 -1.00 SRR174… b_cell  7 d   TRUE    1    
##  5   0.189 13.0    1.66 -0.0269  4.64  -1.35 SRR174… dendri… 0 d   FALSE   0    
##  6  -0.293 12.9    1.76 -0.0727  4.21  -1.28 SRR174… dendri… 1 d   FALSE   0    
##  7   0.407 13.0    1.42 -0.0529  5.37  -1.01 SRR174… dendri… 3 d   FALSE   1    
##  8  -0.620 13.0    1.73 -0.201   4.17  -1.07 SRR174… dendri… 7 d   FALSE   0    
##  9   2.56  13.5    2.32  2.03   -4.32  -1.22 SRR174… monocy… 0 d   FALSE   1    
## 10   2.65  13.1    2.21  1.80   -4.29  -1.30 SRR174… monocy… 1 d   FALSE   1    
## # … with 38 more rows, 3 more variables: factor_of_interest <lgl>, TMM <dbl>,
## #   multiplier <dbl>, and abbreviated variable names ¹​Cell.type, ²​condition
…
Plot

counts_SE.norm.tSNE |>
    pivot_sample() |>
    select(contains("tSNE"), everything()) 

## # A tibble: 251 × 4
##     tSNE1  tSNE2 .sample                      Call 
##     <dbl>  <dbl> <chr>                        <fct>
##  1   9.83  0.593 TCGA-A1-A0SD-01A-11R-A115-07 LumA 
##  2  -3.02 -4.66  TCGA-A1-A0SF-01A-11R-A144-07 LumA 
##  3  13.1  -7.02  TCGA-A1-A0SG-01A-11R-A144-07 LumA 
##  4   9.31 -9.44  TCGA-A1-A0SH-01A-11R-A084-07 LumA 
##  5   6.78 -0.362 TCGA-A1-A0SI-01A-11R-A144-07 LumB 
##  6  -3.63  2.65  TCGA-A1-A0SJ-01A-11R-A084-07 LumA 
##  7 -28.6  -2.98  TCGA-A1-A0SK-01A-12R-A084-07 Basal
##  8  -9.53  8.50  TCGA-A1-A0SM-01A-11R-A084-07 LumA 
##  9  -8.03  8.48  TCGA-A1-A0SN-01A-11R-A144-07 LumB 
## 10  21.4   5.82  TCGA-A1-A0SQ-01A-21R-A144-07 LumA 
## # … with 241 more rows
…
From ensembl IDs to gene symbol IDs

We can add gene symbols from ensembl identifiers. This is useful
since different resources use ensembl IDs while others use gene symbol
IDs. This currently works for human and mouse.

counts_ensembl |> ensembl_to_symbol(ens)

## # A tibble: 119 × 8
##    ens             iso   `read count` sample     cases…¹ cases…² trans…³ ref_g…⁴
##    <chr>           <chr>        <dbl> <chr>      <chr>   <chr>   <chr>   <chr>  
##  1 ENSG00000000003 13             144 TARGET-20… Acute … Primar… TSPAN6  hg38   
##  2 ENSG00000000003 13              72 TARGET-20… Acute … Primar… TSPAN6  hg38   
##  3 ENSG00000000003 13               0 TARGET-20… Acute … Primar… TSPAN6  hg38   
##  4 ENSG00000000003 13            1099 TARGET-20… Acute … Primar… TSPAN6  hg38   
##  5 ENSG00000000003 13              11 TARGET-20… Acute … Primar… TSPAN6  hg38   
##  6 ENSG00000000003 13               2 TARGET-20… Acute … Primar… TSPAN6  hg38   
##  7 ENSG00000000003 13               3 TARGET-20… Acute … Primar… TSPAN6  hg38   
##  8 ENSG00000000003 13            2678 TARGET-20… Acute … Primar… TSPAN6  hg38   
##  9 ENSG00000000003 13             751 TARGET-20… Acute … Primar… TSPAN6  hg38   
## 10 ENSG00000000003 13               1 TARGET-20… Acute … Primar… TSPAN6  hg38   
## # … with 109 more rows, and abbreviated variable names
## #   ¹​cases_0_project_disease_type, ²​cases_0_samples_0_sample_type, ³​transcript,
## #   ⁴​ref_genome
…
